{
  "extends": [
    "config:base"
  ],
  "timezone": "Europe/Amsterdam",
  "docker": {
    "enabled": true
  },
  "hostRules": [
    {
      "hostType": "docker",
      "matchHost": "edgeworks.jfrog.io",
      "userName": "{{ secrets.JFROG_USERNAME }}",
      "password": "{{ secrets.JFROG_TOKEN }}"
    }
  ],
  "packageRules": [
    {
      "matchDatasources": [
        "docker"
      ]
    }
  ]
}